{
  "images": [
    {
      "creator": "iamconnorrm",
      "creator_url": "https://nappy.co/iamconnorrm",
      "downloads": 1329,
      "filesize": "233.5kB",
      "filetype": "jpg",
      "foreign_identifier": 9,
      "foreign_landing_url": "https://nappy.co/photo/9/woman-with-tattoos",
      "height": 1361,
      "license": "CC0",
      "saves": 18,
      "tags": "indoor,bed,arthropod,dark,lobster,braids,female,red,blue,tattoo,earring,phone,laying,room",
      "title": "woman with tattoos",
      "url": "https://images.nappy.co/uploads/large/101591721349meykm7s6hvaswwvslpjrwibeyzru1fcxtxh0hf09cs7kdhmtptef4y3k4ua5z1bkyrbxov8tmagnafm8upwa3hxaxururtx7azaf.jpg",
      "views": 82692,
      "width": 2048
    },
    {
      "creator": "iamconnorrm",
      "creator_url": "https://nappy.co/iamconnorrm",
      "downloads": 1371,
      "filesize": "335.9kB",
      "filetype": "jpg",
      "foreign_identifier": 10,
      "foreign_landing_url": "https://nappy.co/photo/10/woman-with-tattoos",
      "height": 1568,
      "license": "CC0",
      "saves": 16,
      "tags": "phone,thread,mobile phone,fiber,indoor,person,purple,braids,extensions,relaxed,female,woman,hoop earrings,tattoos,couch,laying,bedroom,home,chillen",
      "title": "woman with tattoos",
      "url": "https://images.nappy.co/uploads/large/1015917606841e4lhtkqwyaq2qo4rkrv2vnl30fss9ufdrknnxv26bivb8d36uk8qsdrwwh4bg4yrn6sjp23qulnomxnixlbaj1zqf5u5cpaqfw1.jpg",
      "views": 50380,
      "width": 2407
    },
    {
      "creator": "NappyStock",
      "creator_url": "https://nappy.co/NappyStock",
      "downloads": 1082,
      "filesize": "3.4MB",
      "filetype": "jpg",
      "foreign_identifier": 11,
      "foreign_landing_url": "https://nappy.co/photo/11/women-drinking-coffee",
      "height": 4480,
      "license": "CC0",
      "saves": 10,
      "tags": "indoor,person,wall,human face,clothing,laptop,furniture,computer,woman,smile,sitting,table,living,people,happy,locs,haircut,female,women,excited,joyful,macbook,couch,coffee,tea,laughing,phone,working,office",
      "title": "Women drinking coffee",
      "url": "https://images.nappy.co/uploads/large/215917622316fvyx1szu6ntonn5qcmsj3jew8rctnhjmfbcehxwc19cegkluf6kjednm4goockgf9tzygdrktsbsted7fiizisslgyfpuzahenz.jpg",
      "views": 26952,
      "width": 6720
    },
    {
      "creator": "michellclark",
      "creator_url": "https://nappy.co/michellclark",
      "downloads": 1670,
      "filesize": "151.4kB",
      "filetype": "jpg",
      "foreign_identifier": 12,
      "foreign_landing_url": "https://nappy.co/photo/12/man-smiling",
      "height": 1620,
      "license": "CC0",
      "saves": 15,
      "tags": "human face,person,clothing,man,smile,t-shirt,active shirt,top,facial hair,sleeve,baseball cap,black,headshot,hat,fitted,chain,dark ceasar,short cut,male,standing,portrait",
      "title": "Man smiling",
      "url": "https://images.nappy.co/uploads/large/71591899860fbb6p1q7ilg0n3utineujwjupktr7jgd5e8xpytrlt4exoefehfrswwtnli2ojd3uhnofd3703kd2f5rpldoqh1w79btgi8bqy8s.jpg",
      "views": 69484,
      "width": 1080
    },
    {
      "creator": "_willpower_",
      "creator_url": "https://nappy.co/_willpower_",
      "downloads": 864,
      "filesize": "281.1kB",
      "filetype": "jpg",
      "foreign_identifier": 13,
      "foreign_landing_url": "https://nappy.co/photo/13/bearded-man",
      "height": 2048,
      "license": "CC0",
      "saves": 4,
      "tags": "human face,outdoor,person,clothing,human beard,sky,man,fashion accessory,goggles,eyewear,moustache,cool,facial hair,cap,headgear,wearing,hat,sunglasses,jacket,male,teal,white,grey,park,field,green,chain,lips",
      "title": "Bearded man",
      "url": "https://images.nappy.co/uploads/large/21631695923fzirwe1wuypepmxtaxomi7kiog5a42uycntranjkmc8kmd5lsdsgaek4mwla71r36e5sungsxbj8znn78i6s42ktsmygvypnluto.jpg",
      "views": 9494,
      "width": 1365
    },
    {
      "creator": "samanthasophia",
      "creator_url": "https://nappy.co/samanthasophia",
      "downloads": 1257,
      "filesize": "308.4kB",
      "filetype": "jpg",
      "foreign_identifier": 14,
      "foreign_landing_url": "https://nappy.co/photo/14/couple-on-a-date",
      "height": 1365,
      "license": "CC0",
      "saves": 11,
      "tags": "outdoor,sky,clothing,mountain,person,footwear,ground,curls,hat,relaxed,in love,couple,male,female,sneakers,shirt,bag,statue,standing,leaning,hollywood,los angeles,high ground,date,valentine",
      "title": "Couple on a date",
      "url": "https://images.nappy.co/uploads/large/121591921493qrrtjwlzvfpprfkttctplh4kd3oi82mdxxlmf96vjrads0sw2pmlfitcan3y429hwwjt9r5chftvmkbchgkgpdxb8yjole0pdq9m.jpg",
      "views": 52293,
      "width": 2048
    },
    {
      "creator": "olueletu",
      "creator_url": "https://nappy.co/olueletu",
      "downloads": 1709,
      "filesize": "272.1kB",
      "filetype": "jpg",
      "foreign_identifier": 32,
      "foreign_landing_url": "https://nappy.co/photo/32/man-using-ipad",
      "height": 1356,
      "license": "CC0",
      "saves": 18,
      "tags": "person,clothing,human face,man,glasses,wall,shirt,indoor,mobile phone,text,striped,office,work,beard,male,blue,shoes,socks,pants,ipad,pencil,graph,sitting,teaching,presenting,meeting,stripe,carpet",
      "title": "Man using iPad",
      "url": "https://images.nappy.co/uploads/large/111591931716tsvidfocoz0nvs8p9fjukivldja0dkupitil7mpt3hzwsgkv3vbe92qo0lykowc3m9kxl42wc1qlvptrkcufzcm2h6onlmcioblb.jpg",
      "views": 51200,
      "width": 2048
    },
    {
      "creator": "olueletu",
      "creator_url": "https://nappy.co/olueletu",
      "downloads": 1497,
      "filesize": "220.2kB",
      "filetype": "jpg",
      "foreign_identifier": 33,
      "foreign_landing_url": "https://nappy.co/photo/33/man-sketching-on-a-paper",
      "height": 1356,
      "license": "CC0",
      "saves": 9,
      "tags": "person,indoor,clothing,furniture,learning,table,bag,red,blue,wood,desk,watch,pen,paper,draw,standing,work from home,office,work,books,meeting,presentation",
      "title": "Man sketching on a paper",
      "url": "https://images.nappy.co/uploads/large/111591931801ilojwrb5h2axljslvhqbr5xktgn2oobqqob9kcfjcp4vvmdhvetgnkrryiogxvejl8mfsanchpy0tyenyaqakznqbqt6jqjxeea7.jpg",
      "views": 45896,
      "width": 2048
    },
    {
      "creator": "olueletu",
      "creator_url": "https://nappy.co/olueletu",
      "downloads": 1012,
      "filesize": "238.9kB",
      "filetype": "jpg",
      "foreign_identifier": 34,
      "foreign_landing_url": "https://nappy.co/photo/34/man-looking-at-his-watch",
      "height": 1603,
      "license": "CC0",
      "saves": 3,
      "tags": "outdoor,sky,person,fashion accessory,cloud,grass,orange,watch,sweater,horizon,male,man,telling time,by the water,river",
      "title": "Man looking at his watch",
      "url": "https://images.nappy.co/uploads/large/111591931914waxh1ygklshcuat0vclcrxw5eqwlb4vxl5alwejvesekxat1d50p742iel6hh76dfzcasrtwgrz7surifwgl6sw9ngls4pvzq1nr.jpg",
      "views": 17954,
      "width": 2048
    },
    {
      "creator": "olueletu",
      "creator_url": "https://nappy.co/olueletu",
      "downloads": 1119,
      "filesize": "101.5kB",
      "filetype": "jpg",
      "foreign_identifier": 35,
      "foreign_landing_url": "https://nappy.co/photo/35/man-playing-the-piano",
      "height": 1356,
      "license": "CC0",
      "saves": 11,
      "tags": "piano,person,musical keyboard,keyboard,keyboard player,clothing,electronic keyboard,electric piano,music,digital piano,electronic instrument,pianist,indoor,laptop,watch,shirt,purple,jazz,band,male,man,drums,studio",
      "title": "Man playing the piano",
      "url": "https://images.nappy.co/uploads/large/111591931994kkgbuerofxyi97kpps1rhubhp4lefwittst3zmhdrfjrfnfub3s94kfjyyxjnv0hjvli17giknovw6j79348blwktvl1n1i9zw5s.jpg",
      "views": 20930,
      "width": 2048
    }
  ],
  "next_page": "https://api.nappy.co/v1/openverse/images?page=2",
  "page": 1,
  "per_page": 10,
  "total_pages": 206,
  "total_results": 2059
}
